{
  "project_info": {
    "project_number": "551526608436",
    "firebase_url": "https://yammy-425ad.firebaseio.com",
    "project_id": "yammy-425ad",
    "storage_bucket": "yammy-425ad.appspot.com"
  },
  "client": [
    {
      "client_info": {
        "mobilesdk_app_id": "1:551526608436:android:0d048bfd60093d47c02461",
        "android_client_info": {
          "package_name": "com.staticvoidlabs.yammy"
        }
      },
      "oauth_client": [
        {
          "client_id": "551526608436-4f2mcnjkvg9c5uf9l90po1s7ursp1g4p.apps.googleusercontent.com",
          "client_type": 3
        }
      ],
      "api_key": [
        {
          "current_key": "AIzaSyBR6glszPQxyVNHDsW-6jFVadTz6NnUQC0"
        }
      ],
      "services": {
        "appinvite_service": {
          "other_platform_oauth_client": [
            {
              "client_id": "551526608436-4f2mcnjkvg9c5uf9l90po1s7ursp1g4p.apps.googleusercontent.com",
              "client_type": 3
            }
          ]
        }
      }
    }
  ],
  "configuration_version": "1"
}